{
  "shell_port": 59219,
  "iopub_port": 59220,
  "stdin_port": 59221,
  "control_port": 59222,
  "hb_port": 59223,
  "ip": "127.0.0.1",
  "key": "e617f65e-29a02edcbcda2d1916e27d85",
  "transport": "tcp",
  "signature_scheme": "hmac-sha256",
  "kernel_name": ""
}