{
  "shell_port": 49799,
  "iopub_port": 49800,
  "stdin_port": 49801,
  "control_port": 49802,
  "hb_port": 49803,
  "ip": "127.0.0.1",
  "key": "487c3462-d52f91653aec48221bd4db9d",
  "transport": "tcp",
  "signature_scheme": "hmac-sha256",
  "kernel_name": ""
}